,user_id,submission time,answer,sentiment,Depression Level
0,1,2021/10/14 13:00,I feel very lonely being here. Sometimes I can't fall asleep at nights. This makes feel very tired. What should I do?.Recent days are a black period for me. It's so depressing.,-0.35416666666666663,Medium
1,3,2021/10/14 15:00,It's approaching graduation now. But I haven't found a job. This is so frustrating. I don't know what to do. .I feel extremity tired these days. Busy with so many coursework and studio things and job finding.,-0.040000000000000015,Low
2,5,2021/10/14 12:30,My god. I feel it hard to make new friends. I feel alone.,-0.07765151515151517,Low
3,6,2021/10/14 12:30,It's so frustrating. Today I encountered a very embarrassing thing. I can't feel asleep because this thing is always on my mind. What should I do? I want to forget it!,-0.07500000000000001,Low
4,7,2021/10/14 12:30,Sometimes I feel there's no meaning in my life. Why do I live in the world? Is there anybody care about me? If I disappear ...,0.13636363636363635,Normal
5,9,2021/10/14 14:00,I went through a lot of depression recently. And I don't how to recover from it.,0.0,Normal
6,10,2021/11/05 15:24,"Today I'm very happy, because I found a girlfriend!",1.0,Normal
