{
    "total": 4,
    "items": [
        {
            "topic": "campus, supermarket, island, message"
        },
        {
            "topic": "guard, electronic, entrance, deploy"
        },
        {
            "topic": "buidling, conditioner, lower, tempurature"
        },
        {
            "topic": "package, house, provide, notification"
        }
    ]
}